…
Quels sont les mots les plus employés par chaque candidat ?  
Nous pouvons compter les mots pour chaque candidat avec `dplyr::count`.

```r
tidy_tweet %>% 
  group_by(nom) %>% 
  count(mot, sort = TRUE)
```

```
## Source: local data frame [2,226 x 3]
## Groups: nom [5]
## 
##                nom          mot     n
##             <fctr>        <chr> <int>
## 1    @MLP_officiel     débattf1   108
## 2    @MLP_officiel legranddébat   106
## 3     @JLMelenchon legranddébat    86
## 4     @JLMelenchon     débattf1    76
## 5    @MLP_officiel           de    66
## 6    @MLP_officiel           la    64
## 7     @JLMelenchon           de    60
## 8  @FrancoisFillon           de    56
## 9     @JLMelenchon           la    52
## 10    @benoithamon           de    49
## # ... with 2,216 more rows
```
…
